{
  "Comment.nvim": { "branch": "master", "commit": "0236521ea582747b58869cb72f70ccfa967d2e89" },
  "LuaSnip": { "branch": "master", "commit": "2463d687fe704b76eb0aa3bb34e95f69a5bb0362" },
  "base46": { "branch": "v2.0", "commit": "3f2b658cbd6650ddaf2bae3233e143a41ca25b1a" },
  "better-escape.nvim": { "branch": "master", "commit": "d0e9bc2357d79d88fcbf067e7096812dd917b58f" },
  "cmp-buffer": { "branch": "main", "commit": "3022dbc9166796b644a841a02de8dd1cc1d311fa" },
  "cmp-nvim-lsp": { "branch": "main", "commit": "5af77f54de1b16c34b23cba810150689a3a90312" },
  "cmp-nvim-lua": { "branch": "main", "commit": "f12408bdb54c39c23e67cab726264c10db33ada8" },
  "cmp-path": { "branch": "main", "commit": "91ff86cd9c29299a64f968ebb45846c485725f23" },
  "cmp_luasnip": { "branch": "master", "commit": "05a9ab28b53f71d1aece421ef32fee2cb857a843" },
  "friendly-snippets": { "branch": "main", "commit": "53d3df271d031c405255e99410628c26a8f0d2b0" },
  "gitsigns.nvim": { "branch": "main", "commit": "d195f0c35ced5174d3ecce1c4c8ebb3b5bc23fa9" },
  "indent-blankline.nvim": { "branch": "master", "commit": "b7aa0aed55887edfaece23f7b46ab22232fc8741" },
  "lazy.nvim": { "branch": "main", "commit": "96584866b9c5e998cbae300594d0ccfd0c464627" },
  "mason.nvim": { "branch": "main", "commit": "a09da6ac634926a299dd439da08bdb547a8ca011" },
  "noice.nvim": { "branch": "main", "commit": "92433164e2f7118d4122c7674c3834d9511722ba" },
  "none-ls.nvim": { "branch": "main", "commit": "e7382de51b4cf629e56f1fa18192e716e5ba8145" },
  "nui.nvim": { "branch": "main", "commit": "80445d015d2b5f9af0d9e8bce63d303bc86eda8a" },
  "nvim-autopairs": { "branch": "master", "commit": "9fd41181693dd4106b3e414a822bb6569924de81" },
  "nvim-cmp": { "branch": "main", "commit": "538e37ba87284942c1d76ed38dd497e54e65b891" },
  "nvim-colorizer.lua": { "branch": "master", "commit": "85855b38011114929f4058efc97af1059ab3e41d" },
  "nvim-lspconfig": { "branch": "master", "commit": "9bedcfed749755e43fc8bed46f85ce2044fe3b77" },
  "nvim-notify": { "branch": "master", "commit": "ebcdd8219e2a2cbc0a4bef68002f6867f1fde269" },
  "nvim-tree.lua": { "branch": "master", "commit": "f779abaf2a6aba20107cb84bb468599327128202" },
  "nvim-treesitter": { "branch": "master", "commit": "e49f1e8ef3e8450a8446cb1f2bbb53c919f60b6d" },
  "nvim-ts-autotag": { "branch": "main", "commit": "8515e48a277a2f4947d91004d9aa92c29fdc5e18" },
  "nvim-web-devicons": { "branch": "master", "commit": "cff25ce621e6d15fae0b0bfe38c00be50ce38468" },
  "nvterm": { "branch": "main", "commit": "3e43be1d0ca60cc5e2dfc2d289b06577e7e57e98" },
  "plenary.nvim": { "branch": "master", "commit": "55d9fe89e33efd26f532ef20223e5f9430c8b0c0" },
  "telescope.nvim": { "branch": "master", "commit": "3466159b0fcc1876483f6f53587562628664d850" },
  "ui": { "branch": "v2.0", "commit": "1737a2a98e18b635480756e817564b60ff31fc53" },
  "which-key.nvim": { "branch": "main", "commit": "4433e5ec9a507e5097571ed55c02ea9658fb268a" }
}